
Memory Configuration

Name             Origin             Length             Attributes
ram              0x0000000000000000 0x0000000000400000
*default*        0x0000000000000000 0xffffffffffffffff

Linker script and memory map

LOAD main.o

.text           0x0000000000000000    0x10508
 *(.text*)
 .text          0x0000000000000000    0x10508 main.o
                0x00000000000100a0                app
                0x0000000000010188                lat
                0x0000000000010210                laL
                0x00000000000102a4                laZ
                0x00000000000103a4                resetLine
                0x0000000000010410                elCuadrado
                0x0000000000010484                elPalito

.iplt           0x0000000000010508        0x0
 .iplt          0x0000000000010508        0x0 main.o

.rela.dyn       0x0000000000010508        0x0
 .rela.iplt     0x0000000000010508        0x0 main.o

.data           0x0000000000010508        0x0
 .data          0x0000000000010508        0x0 main.o

.igot.plt       0x0000000000010508        0x0
 .igot.plt      0x0000000000010508        0x0 main.o

.bss            0x0000000000010508        0x0
 *(.bss*)
 .bss           0x0000000000010508        0x0 main.o
OUTPUT(main.elf elf64-littleaarch64)
